\relax 
\select@language{english}
\@writefile{toc}{\select@language{english}}
\@writefile{lof}{\select@language{english}}
\@writefile{lot}{\select@language{english}}
\newlabel{FirstPage}{{}{1}{}{}{}}
\@writefile{toc}{\contentsline {title}{Simon-Hoh, lower-hybrid and ion-sound instabilities in partially magnetized plasmas of $\mathbf  {E}\times \mathbf  {B}$ discharges: Numerical studies with MATLAB solver.}{1}{}}
\@writefile{toc}{\contentsline {abstract}{Abstract}{1}{}}
\citation{SmolyakovPPCF2016}
\citation{Git}
\citation{RaitsesIEPC2015}
\citation{RaitsesIEPC2015}
\@writefile{toc}{\contentsline {section}{\numberline {I}INTRODUCTION}{2}{}}
\@writefile{toc}{\contentsline {section}{\numberline {II}GENERAL DISPERSION RELATION FOR PENNING DISCHARGE}{2}{}}
\citation{SmolyakovPPCF2016,FriasPoP2013,FriasPoP2014}
\@writefile{lot}{\contentsline {table}{\numberline {I}{\ignorespaces Typical Penning discharge parameters\relax }}{3}{}}
\providecommand*\caption@xref[2]{\@setref\relax\@undefined{#1}}
\newlabel{Table:param}{{I}{3}{}{}{}}
\@writefile{toc}{\contentsline {section}{\numberline {III}MATLAB SOLVER}{4}{}}
\@writefile{toc}{\contentsline {subsection}{\numberline {A}User Interface}{4}{}}
\@writefile{lof}{\contentsline {figure}{\numberline {1}{\ignorespaces General view of the software interface. Section 1 -- plasma parameters control; section 2 -- dispersion relation form; section 3 -- control buttons.\relax }}{4}{}}
\newlabel{fig:FigA1}{{1}{4}{}{}{}}
\@writefile{lof}{\contentsline {figure}{\numberline {2}{\ignorespaces Example of selecting the magnetic field as a variable parameter.\relax }}{4}{}}
\newlabel{fig:FigA2}{{2}{4}{}{}{}}
\@writefile{lof}{\contentsline {figure}{\numberline {3}{\ignorespaces Example of selecting the $k_y$ wavenumber as a variable parameter.\relax }}{5}{}}
\newlabel{fig:FigA3}{{3}{5}{}{}{}}
\@writefile{lof}{\contentsline {figure}{\numberline {4}{\ignorespaces Plasma parameter window.\relax }}{6}{}}
\newlabel{fig:FigA4}{{4}{6}{}{}{}}
\@writefile{lof}{\contentsline {figure}{\numberline {5}{\ignorespaces Plasma parameter window.\relax }}{6}{}}
\newlabel{fig:FigA5}{{5}{6}{}{}{}}
\citation{Git}
\citation{SimonPF1963,HohPF1963,TaoPF1993}
\citation{SakawaESHB}
\@writefile{toc}{\contentsline {subsection}{\numberline {B}Installation}{7}{}}
\@writefile{toc}{\contentsline {section}{\numberline {IV}EXAMPLES OF INSTABILITIES FROM GENERAL DISPERSION RELATION}{7}{}}
\@writefile{toc}{\contentsline {subsection}{\numberline {A}Simon-Hoh instability}{7}{}}
\newlabel{eq:local_SH}{{3}{7}{}{}{}}
\newlabel{eq:local_crit}{{4}{8}{}{}{}}
\@writefile{lof}{\contentsline {figure}{\numberline {6}{\ignorespaces Growth rate and frequency of the Simon-Hoh mode as a function of $k_{y}\rho _{e}$, and $k_x = 1$ $m^{-1}$.\relax }}{8}{}}
\newlabel{fig:local_ky}{{6}{8}{}{}{}}
\@writefile{lof}{\contentsline {figure}{\numberline {7}{\ignorespaces Growth rate and frequency of the Simon-Hoh mode as a function of $k_{x}\rho _{e}$, and $k_y = 1$ $m^{-1}$.\relax }}{8}{}}
\newlabel{fig:local_kx}{{7}{8}{}{}{}}
\newlabel{eq:max_kx}{{5}{8}{}{}{}}
\citation{SmolyakovPPCF2016}
\newlabel{eq:max_om}{{6}{9}{}{}{}}
\@writefile{lof}{\contentsline {figure}{\numberline {8}{\ignorespaces View of the solver interface with parameters, which were used to obtain Fig. \ref  {fig:local_ky}, \ref  {fig:local_kx}.\relax }}{9}{}}
\newlabel{fig:interface_SH}{{8}{9}{}{}{}}
\@writefile{toc}{\contentsline {subsection}{\numberline {B}Effect of electron inertia on Simon-Hoh instability}{9}{}}
\newlabel{eq:Eq2}{{7}{9}{}{}{}}
\citation{SmolyakovPPCF2016}
\@writefile{lof}{\contentsline {figure}{\numberline {9}{\ignorespaces Frequency and growth rate of the Simon-Hoh instability with electron inertia effect as functions of $k_y\rho _e$ at $k_x = 1$ (left) and $k_x\rho _e$ at $k_y = 1$ (right).\relax }}{10}{}}
\newlabel{fig:inertia}{{9}{10}{}{}{}}
\@writefile{lof}{\contentsline {figure}{\numberline {10}{\ignorespaces Group velocity in $y$ (left) and $x$ (right) directions.\relax }}{10}{}}
\newlabel{fig:inertiaGV}{{10}{10}{}{}{}}
\@writefile{lof}{\contentsline {figure}{\numberline {11}{\ignorespaces View of the solver interface with parameters, which were used to obtain Fig. \ref  {fig:inertia}, \ref  {fig:inertiaGV}.\relax }}{10}{}}
\newlabel{fig:interface_inertia}{{11}{10}{}{}{}}
\@writefile{toc}{\contentsline {subsection}{\numberline {C}Effects of electron inertia and gyroviscosity on Simon-Hoh modes}{11}{}}
\@writefile{lof}{\contentsline {figure}{\numberline {12}{\ignorespaces Frequency and growth rate of the Simon-Hoh instability with electron inertia an gyroviscosity effects as functions of $k_y\rho _e$ at $k_x = 1$ (left) and $k_x\rho _e$ at $k_y = 1$ (right).\relax }}{11}{}}
\newlabel{fig:inGV}{{12}{11}{}{}{}}
\@writefile{lof}{\contentsline {figure}{\numberline {13}{\ignorespaces Group velocity in $y$ (left) and $x$ (right) directions.\relax }}{11}{}}
\newlabel{fig:inGV_GV}{{13}{11}{}{}{}}
\@writefile{lof}{\contentsline {figure}{\numberline {14}{\ignorespaces View of the solver interface with parameters, which were used to obtain Fig. \ref  {fig:inGV}, \ref  {fig:inGV_GV}.\relax }}{12}{}}
\newlabel{fig:interface_inGV}{{14}{12}{}{}{}}
\@writefile{toc}{\contentsline {subsection}{\numberline {D}Full dispersion relation including effects of electron inertia, gyroviscosity, $\mathbf  {E}\times \mathbf  {B}$ flow, and collisions}{12}{}}
\@writefile{lof}{\contentsline {figure}{\numberline {15}{\ignorespaces Frequency and growth rate of the Simon-Hoh instability with electron inertia an gyroviscosity effects as functions of $k_y\rho _e$ at $k_x = 1$ (left) and $k_x\rho _e$ at $k_y = 1$ (right).\relax }}{12}{}}
\newlabel{fig:coll}{{15}{12}{}{}{}}
\@writefile{lof}{\contentsline {figure}{\numberline {16}{\ignorespaces Group velocity in $y$ (left) and $x$ (right) directions.\relax }}{13}{}}
\newlabel{fig:coll_GV}{{16}{13}{}{}{}}
\@writefile{lof}{\contentsline {figure}{\numberline {17}{\ignorespaces View of the solver interface with parameters, which were used to obtain Fig. \ref  {fig:coll}, \ref  {fig:coll_GV}.\relax }}{13}{}}
\newlabel{fig:interface_coll}{{17}{13}{}{}{}}
\@writefile{toc}{\contentsline {subsection}{\numberline {E}Effect of magnetic field gradient}{13}{}}
\@writefile{lof}{\contentsline {figure}{\numberline {18}{\ignorespaces Frequency and growth rate from full dispersion relation with magnetic field gradient as functions of $k_y\rho _e$ at $k_x = 1$.\relax }}{14}{}}
\newlabel{fig:Mag}{{18}{14}{}{}{}}
\@writefile{lof}{\contentsline {figure}{\numberline {19}{\ignorespaces View of the solver interface with parameters, which were used to obtain Fig. \ref  {fig:coll}.\relax }}{14}{}}
\newlabel{fig:interface_Mag}{{19}{14}{}{}{}}
\@writefile{toc}{\contentsline {subsection}{\numberline {F}Search for growth rate and frequency as function of wavenumbers}{14}{}}
\@writefile{lof}{\contentsline {figure}{\numberline {20}{\ignorespaces Frequency and growth rate.\relax }}{15}{}}
\newlabel{fig:3D}{{20}{15}{}{}{}}
\@writefile{lof}{\contentsline {figure}{\numberline {21}{\ignorespaces Group velocity.\relax }}{15}{}}
\newlabel{fig:3D_GV}{{21}{15}{}{}{}}
\@writefile{lof}{\contentsline {figure}{\numberline {22}{\ignorespaces View of the solver interface with parameters, which were used to obtain Fig. \ref  {fig:3D}.\relax }}{15}{}}
\newlabel{fig:interface_3D}{{22}{15}{}{}{}}
\bibcite{SmolyakovPPCF2016}{{1}{}{{}}{{}}}
\bibcite{Git}{{2}{}{{}}{{}}}
\bibcite{RaitsesIEPC2015}{{3}{}{{}}{{}}}
\bibcite{FriasPoP2013}{{4}{}{{}}{{}}}
\bibcite{FriasPoP2014}{{5}{}{{}}{{}}}
\bibcite{SimonPF1963}{{6}{}{{}}{{}}}
\bibcite{HohPF1963}{{7}{}{{}}{{}}}
\bibcite{TaoPF1993}{{8}{}{{}}{{}}}
\bibcite{SakawaESHB}{{9}{}{{}}{{}}}
\bibdata{descriptionNotes}
\bibstyle{aipnum4-1}
\citation{REVTEX41Control}
\citation{aip41Control}
\providecommand\NAT@force@numbers{}\NAT@force@numbers
\@writefile{toc}{\contentsline {section}{\numberline {V}Conclusion}{16}{}}
\@writefile{toc}{\contentsline {section}{\numberline {}References}{16}{}}
\newlabel{LastBibItem}{{9}{16}{}{}{}}
\newlabel{LastPage}{{}{16}{}{}{}}
